Example forecast hub data • hubExamples
…
For purposes of evaluating predictions, it can be helpful to join the
observed target values, contained in
forecast_oracle_output, into the data frame of forecast
outputs. This enables direct comparison of predictions and observations.
We illustrate this here, omitting some columns from the display for
convenience:

forecast_outputs |>
  filter(target == "wk inc flu hosp") |>
  left_join(forecast_oracle_output) |>
  select(-model_id, -reference_date, -horizon)
#> Joining with `by = join_by(target, location, target_end_date, output_type, output_type_id)`
#> # A tibble: 5,232 × 7
#>    target          location target_end_date output_type output_type_id value oracle_value
#>    <chr>           <chr>    <date>          <chr>       <chr>          <dbl>        <dbl>
#>  1 wk inc flu hosp 25       2022-11-19      quantile    0.05              22           NA
#>  2 wk inc flu hosp 25       2022-11-19      quantile    0.1               31           NA
#>  3 wk inc flu hosp 25       2022-11-19      quantile    0.25              45           NA
#>  4 wk inc flu hosp 25       2022-11-19      quantile    0.5               51           NA
#>  5 wk inc flu hosp 25       2022-11-19      quantile    0.75              57           NA
#>  6 wk inc flu hosp 25       2022-11-19      quantile    0.9               71           NA
#>  7 wk inc flu hosp 25       2022-11-19      quantile    0.95              80           NA
#>  8 wk inc flu hosp 25       2022-11-26      quantile    0.05               5           NA
#>  9 wk inc flu hosp 25       2022-11-26      quantile    0.1               21           NA
#> 10 wk inc flu hosp 25       2022-11-26      quantile    0.25              38           NA
#> # ℹ 5,222 more rows
…
